23:15:25 **** Incremental Build of configuration Debug for project Laba5_Khamar ****
make -j4 all 
arm-none-eabi-gcc "../Core/Src/main.c" -mcpu=cortex-m4 -std=gnu11 -g3 -DDEBUG -DUSE_HAL_DRIVER -DSTM32F407xx -c -I../Core/Inc -I../Drivers/STM32F4xx_HAL_Driver/Inc -I../Drivers/STM32F4xx_HAL_Driver/Inc/Legacy -I../Drivers/CMSIS/Device/ST/STM32F4xx/Include -I../Drivers/CMSIS/Include -O0 -ffunction-sections -fdata-sections -Wall -fstack-usage -MMD -MP -MF"Core/Src/main.d" -MT"Core/Src/main.o" --specs=nano.specs -mfpu=fpv4-sp-d16 -mfloat-abi=hard -mthumb -o "Core/Src/main.o"
arm-none-eabi-gcc -o "Laba5_Khamar.elf" @"objects.list"   -mcpu=cortex-m4 -T"E:\CubeIDE_Projects\Laba5_Khamar\STM32F407VGTX_FLASH.ld" --specs=nosys.specs -Wl,-Map="Laba5_Khamar.map" -Wl,--gc-sections -static --specs=nano.specs -mfpu=fpv4-sp-d16 -mfloat-abi=hard -mthumb -Wl,--start-group -lc -lm -Wl,--end-group
Finished building target: Laba5_Khamar.elf
 
arm-none-eabi-size   Laba5_Khamar.elf 
arm-none-eabi-objdump -h -S  Laba5_Khamar.elf  > "Laba5_Khamar.list"
arm-none-eabi-objcopy  -O binary  Laba5_Khamar.elf  "Laba5_Khamar.bin"
   text	   data	    bss	    dec	    hex	filename
  13892	    120	   1744	  15756	   3d8c	Laba5_Khamar.elf
Finished building: default.size.stdout
 
Finished building: Laba5_Khamar.bin
 
Finished building: Laba5_Khamar.list
 

23:15:28 Build Finished. 0 errors, 0 warnings. (took 3s.303ms)

